<svg xmlns="http://www.w3.org/2000/svg" id="twitter" width="35" height="35" viewBox="0 0 35 35">
    <defs>
        <style>
            .cls-1{fill:#de3163}.cls-2{fill:#fff;fill-rule:evenodd}
        </style>
    </defs>
    <circle id="Ellipse_5" cx="17.5" cy="17.5" r="17.5" class="cls-1" data-name="Ellipse 5"/>
    <g id="Group_46" data-name="Group 46" transform="translate(7.5 9.5)">
        <path id="Path_61" d="M6.29 0a11.5 11.5 0 0 0 11.675-11.495c0-.175 0-.349-.012-.523A8.265 8.265 0 0 0 20-14.108a8.272 8.272 0 0 1-2.356.636 4.07 4.07 0 0 0 1.8-2.235 8.3 8.3 0 0 1-2.606.981 4.153 4.153 0 0 0-5.806-.175 4.005 4.005 0 0 0-1.187 3.86 11.717 11.717 0 0 1-8.457-4.221A4.005 4.005 0 0 0 2.663-9.87 4.123 4.123 0 0 1 .8-10.375v.051a4.059 4.059 0 0 0 3.292 3.96A4.143 4.143 0 0 1 2.24-6.3a4.1 4.1 0 0 0 3.833 2.811 8.316 8.316 0 0 1-5.1 1.733A8.546 8.546 0 0 1 0-1.814 11.753 11.753 0 0 0 6.29 0" class="cls-2" data-name="Path 61" transform="translate(0 16)"/>
    </g>
</svg>
