<svg xmlns="http://www.w3.org/2000/svg" id="instagram" width="35" height="35" viewBox="0 0 35 35">
    <defs>
        <style>
            .cls-1{fill:#de3163}.cls-2{fill:#fff;fill-rule:evenodd}
        </style>
    </defs>
    <circle id="Ellipse_4" cx="17.5" cy="17.5" r="17.5" class="cls-1" data-name="Ellipse 4"/>
    <g id="Group_45" data-name="Group 45" transform="translate(7.5 7.5)">
        <path id="Path_60" d="M5.87-19.877a5.947 5.947 0 0 0-4.178 1.606A5.919 5.919 0 0 0 .082-14.1c-.046 1-.314 8.6.462 10.59a5.041 5.041 0 0 0 2.91 2.9 7.3 7.3 0 0 0 2.416.464c8.861.4 12.145.183 13.53-3.364a7.238 7.238 0 0 0 .462-2.41c.4-8.883-.066-10.809-1.61-12.352-1.225-1.222-2.666-2.054-12.382-1.606m.081 17.945A5.51 5.51 0 0 1 4.1-2.274a3.255 3.255 0 0 1-1.885-1.883c-.591-1.514-.4-8.7-.342-9.866a4.246 4.246 0 0 1 1.087-2.985c1-.993 2.281-1.479 11.034-1.084a4.269 4.269 0 0 1 2.992 1.084c1 .993 1.489 2.288 1.087 11.008a5.474 5.474 0 0 1-.342 1.843c-.9 2.308-2.972 2.628-11.778 2.224M14.09-15.31a1.193 1.193 0 0 0 1.194 1.191 1.194 1.194 0 0 0 1.2-1.191 1.194 1.194 0 0 0-1.2-1.191 1.193 1.193 0 0 0-1.194 1.191m-9.227 5.3a5.1 5.1 0 0 0 5.11 5.1 5.1 5.1 0 0 0 5.109-5.1 5.1 5.1 0 0 0-5.109-5.1 5.1 5.1 0 0 0-5.11 5.1m1.793 0a3.313 3.313 0 0 1 3.316-3.31 3.313 3.313 0 0 1 3.316 3.308A3.313 3.313 0 0 1 9.972-6.7a3.313 3.313 0 0 1-3.317-3.309" class="cls-2" data-name="Path 60" transform="translate(0 20)"/>
    </g>
</svg>
