<?xml version="1.0" encoding="UTF-8" standalone="no"?>
<!DOCTYPE svg PUBLIC "-//W3C//DTD SVG 1.1//EN" "http://www.w3.org/Graphics/SVG/1.1/DTD/svg11.dtd">
<svg width="100%" height="100%" viewBox="0 0 397 57" version="1.1" xmlns="http://www.w3.org/2000/svg" xmlns:xlink="http://www.w3.org/1999/xlink" xml:space="preserve" xmlns:serif="http://www.serif.com/" style="fill-rule:evenodd;clip-rule:evenodd;stroke-linejoin:round;stroke-miterlimit:1.41421;">
    <g transform="matrix(1,0,0,1,-622.572,-2287.2)">
        <g>
            <g transform="matrix(0.821501,0,0,0.821501,589.257,1367.38)">
                <g id="circle3344" transform="matrix(0.89324,0,0,0.893236,10.5821,1073.97)">
                    <circle cx="71.853" cy="89.483" r="38.3" style="fill:rgb(222,49,99);"/>
                </g>
                <g id="path3350" transform="matrix(0.800932,0,0,0.800932,-212.232,428.791)">
                    <path d="M378.469,926.229L338.184,926.229C334.86,926.229 331.806,924.396 330.243,921.462C328.679,918.529 328.859,914.972 330.713,912.212C336.96,902.907 345.049,890.86 350.855,882.212C352.527,879.723 355.328,878.229 358.327,878.229C361.326,878.229 364.127,879.723 365.799,882.212C371.605,890.86 379.694,902.907 385.941,912.212C387.795,914.972 387.975,918.529 386.411,921.462C384.847,924.396 381.794,926.228 378.469,926.229ZM334.034,914.441C333.004,915.975 332.903,917.951 333.772,919.581C334.641,921.211 336.337,922.228 338.184,922.228C349.22,922.228 367.434,922.228 378.469,922.228C380.316,922.228 382.013,921.211 382.881,919.581C383.75,917.951 383.65,915.975 382.62,914.441C376.873,905.882 367.756,892.304 362.478,884.442C361.549,883.059 359.993,882.229 358.327,882.229C356.661,882.229 355.105,883.059 354.176,884.442C348.898,892.304 339.781,905.882 334.034,914.441ZM358.272,915.412C353.546,915.397 349.26,913.388 346.248,910.19C345.898,909.819 345.704,909.328 345.704,908.819C345.704,907.722 346.606,906.82 347.703,906.82C348.254,906.82 348.781,907.047 349.158,907.448C351.459,909.891 354.705,911.415 358.328,911.415C361.95,911.415 365.196,909.891 367.497,907.448C367.874,907.047 368.402,906.82 368.952,906.82C370.049,906.82 370.952,907.722 370.952,908.819C370.952,909.328 370.757,909.819 370.408,910.19C367.395,913.388 363.109,915.397 358.383,915.412L358.328,915.413L358.272,915.412Z" style="fill:white;fill-rule:nonzero;"/>
                </g>
            </g>
            <path d="M924.311,2308.43L924.311,2327.15C924.311,2329.09 923.851,2330.78 922.93,2332.23C922.01,2333.67 920.719,2334.78 919.058,2335.56C917.396,2336.34 915.479,2336.73 913.306,2336.73C911.619,2336.73 910.015,2336.49 908.494,2336C906.973,2335.52 905.586,2334.85 904.334,2334.01L906.519,2329.87C908.462,2331.25 910.596,2331.94 912.923,2331.94C914.61,2331.94 915.952,2331.52 916.949,2330.69C917.946,2329.86 918.444,2328.74 918.444,2327.34L918.444,2325C917.754,2325.97 916.885,2326.71 915.837,2327.22C914.789,2327.73 913.587,2327.99 912.232,2327.99C910.469,2327.99 908.903,2327.58 907.535,2326.74C906.168,2325.91 905.107,2324.74 904.353,2323.24C903.599,2321.73 903.222,2319.99 903.222,2318.02C903.222,2316.08 903.599,2314.37 904.353,2312.9C905.107,2311.43 906.168,2310.29 907.535,2309.47C908.903,2308.65 910.469,2308.24 912.232,2308.24C913.562,2308.24 914.75,2308.51 915.798,2309.03C916.846,2309.55 917.728,2310.29 918.444,2311.23L918.444,2308.43L924.311,2308.43ZM765.875,2336.5L759.97,2336.5L759.97,2308.43L765.875,2308.43L765.875,2311.46C766.616,2310.42 767.543,2309.62 768.655,2309.07C769.767,2308.52 771.013,2308.24 772.393,2308.24C774.311,2308.24 776.004,2308.68 777.474,2309.57C778.944,2310.45 780.081,2311.69 780.887,2313.3C781.692,2314.91 782.094,2316.77 782.094,2318.86C782.094,2320.93 781.698,2322.76 780.906,2324.33C780.113,2325.9 778.995,2327.12 777.551,2327.99C776.106,2328.86 774.426,2329.29 772.508,2329.29C771.077,2329.29 769.805,2329.02 768.693,2328.47C767.581,2327.92 766.642,2327.12 765.875,2326.07L765.875,2336.5ZM712.693,2309.7C711.312,2308.86 709.849,2308.19 708.302,2307.69C706.756,2307.19 705.433,2306.94 704.334,2306.94C703.286,2306.94 702.455,2307.13 701.841,2307.51C701.228,2307.9 700.921,2308.46 700.921,2309.2C700.921,2310.15 701.362,2310.87 702.244,2311.37C703.126,2311.87 704.487,2312.38 706.327,2312.92C708.168,2313.46 709.683,2313.99 710.871,2314.53C712.06,2315.07 713.076,2315.87 713.92,2316.95C714.763,2318.02 715.185,2319.44 715.185,2321.2C715.185,2322.92 714.731,2324.39 713.824,2325.63C712.916,2326.87 711.67,2327.81 710.085,2328.45C708.5,2329.09 706.698,2329.41 704.679,2329.41C702.506,2329.41 700.371,2329.03 698.275,2328.26C696.179,2327.49 694.364,2326.44 692.831,2325.11L695.246,2320.17C696.601,2321.39 698.16,2322.38 699.924,2323.12C701.688,2323.86 703.298,2324.23 704.755,2324.23C706.008,2324.23 706.986,2324 707.689,2323.54C708.392,2323.08 708.743,2322.42 708.743,2321.55C708.743,2320.86 708.507,2320.29 708.034,2319.84C707.561,2319.39 706.96,2319.03 706.232,2318.75C705.503,2318.47 704.5,2318.15 703.222,2317.79C701.381,2317.28 699.879,2316.77 698.716,2316.26C697.553,2315.75 696.55,2314.97 695.706,2313.92C694.863,2312.87 694.441,2311.48 694.441,2309.74C694.441,2308.13 694.876,2306.72 695.745,2305.5C696.614,2304.29 697.828,2303.35 699.387,2302.7C700.947,2302.05 702.762,2301.72 704.832,2301.72C706.673,2301.72 708.488,2301.99 710.277,2302.53C712.066,2303.07 713.651,2303.78 715.031,2304.68L712.693,2309.7ZM931.366,2323.31C932.235,2323.31 932.944,2323.59 933.494,2324.16C934.043,2324.72 934.318,2325.45 934.318,2326.34C934.318,2327.24 934.043,2327.97 933.494,2328.55C932.944,2329.12 932.235,2329.41 931.366,2329.41C930.522,2329.41 929.819,2329.12 929.257,2328.53C928.695,2327.94 928.413,2327.21 928.413,2326.34C928.413,2325.45 928.695,2324.72 929.257,2324.16C929.819,2323.59 930.522,2323.31 931.366,2323.31ZM726.113,2309.36L731.711,2309.36L731.711,2313.46L726.113,2313.46L726.113,2321.97C726.113,2323.55 726.739,2324.35 727.992,2324.35C728.861,2324.35 729.819,2324.09 730.867,2323.58L732.094,2327.91C731.327,2328.37 730.478,2328.72 729.545,2328.97C728.611,2329.21 727.672,2329.33 726.726,2329.33C724.809,2329.33 723.25,2328.78 722.048,2327.68C720.847,2326.58 720.246,2325.01 720.246,2322.97L720.246,2313.42L717.37,2313.42L717.37,2309.36L720.246,2309.36L720.246,2303.68L726.113,2303.68L726.113,2309.36ZM829.755,2329.06L823.966,2329.06L823.966,2326.65C823.275,2327.52 822.381,2328.18 821.281,2328.64C820.182,2329.1 818.917,2329.33 817.485,2329.33C815.313,2329.33 813.587,2328.74 812.309,2327.55C811.031,2326.36 810.392,2324.81 810.392,2322.89C810.392,2320.95 811.076,2319.43 812.443,2318.35C813.811,2317.26 815.747,2316.7 818.252,2316.68L823.927,2316.68L823.927,2316.3C823.927,2315.2 823.563,2314.35 822.834,2313.74C822.106,2313.14 821.039,2312.84 819.633,2312.84C817.716,2312.84 815.671,2313.45 813.498,2314.65L811.657,2310.58C813.293,2309.76 814.827,2309.16 816.258,2308.78C817.69,2308.4 819.262,2308.2 820.975,2308.2C823.735,2308.2 825.876,2308.86 827.397,2310.16C828.918,2311.46 829.692,2313.28 829.717,2315.61L829.755,2329.06ZM847.854,2314.49C846.729,2313.85 845.617,2313.36 844.518,2313.02C843.418,2312.67 842.434,2312.5 841.565,2312.5C840.849,2312.5 840.274,2312.63 839.84,2312.88C839.405,2313.14 839.188,2313.52 839.188,2314.03C839.188,2314.6 839.482,2315.03 840.07,2315.34C840.658,2315.64 841.616,2315.99 842.946,2316.37C844.403,2316.81 845.604,2317.24 846.55,2317.66C847.496,2318.08 848.314,2318.7 849.004,2319.53C849.694,2320.37 850.039,2321.46 850.039,2322.81C850.039,2324.86 849.253,2326.45 847.681,2327.59C846.109,2328.72 844.096,2329.29 841.642,2329.29C839.955,2329.29 838.332,2329.04 836.772,2328.55C835.213,2328.05 833.858,2327.34 832.708,2326.42L834.625,2322.43C835.673,2323.25 836.843,2323.88 838.133,2324.33C839.424,2324.78 840.645,2325 841.795,2325C842.588,2325 843.22,2324.87 843.693,2324.6C844.166,2324.33 844.403,2323.93 844.403,2323.39C844.403,2322.8 844.102,2322.34 843.502,2322.01C842.901,2321.68 841.936,2321.32 840.607,2320.93C839.201,2320.53 838.031,2320.12 837.098,2319.71C836.165,2319.3 835.366,2318.68 834.702,2317.85C834.037,2317.02 833.705,2315.94 833.705,2314.61C833.705,2312.56 834.472,2310.98 836.005,2309.85C837.539,2308.73 839.482,2308.17 841.834,2308.17C843.24,2308.17 844.645,2308.36 846.051,2308.76C847.457,2309.16 848.735,2309.73 849.886,2310.47L847.854,2314.49ZM744.824,2308.24C746.997,2308.24 748.921,2308.68 750.595,2309.55C752.269,2310.42 753.567,2311.64 754.487,2313.23C755.407,2314.81 755.867,2316.65 755.867,2318.75C755.867,2320.82 755.407,2322.65 754.487,2324.25C753.567,2325.85 752.269,2327.09 750.595,2327.97C748.921,2328.85 746.997,2329.29 744.824,2329.29C742.626,2329.29 740.69,2328.85 739.015,2327.97C737.341,2327.09 736.044,2325.85 735.124,2324.25C734.203,2322.65 733.743,2320.82 733.743,2318.75C733.743,2316.65 734.203,2314.81 735.124,2313.23C736.044,2311.64 737.341,2310.42 739.015,2309.55C740.69,2308.68 742.626,2308.24 744.824,2308.24ZM968.981,2308.24C971.154,2308.24 973.077,2308.68 974.752,2309.55C976.426,2310.42 977.723,2311.64 978.643,2313.23C979.564,2314.81 980.024,2316.65 980.024,2318.75C980.024,2320.82 979.564,2322.65 978.643,2324.25C977.723,2325.85 976.426,2327.09 974.752,2327.97C973.077,2328.85 971.154,2329.29 968.981,2329.29C966.783,2329.29 964.846,2328.85 963.172,2327.97C961.497,2327.09 960.2,2325.85 959.28,2324.25C958.36,2322.65 957.9,2320.82 957.9,2318.75C957.9,2316.65 958.36,2314.81 959.28,2313.23C960.2,2311.64 961.497,2310.42 963.172,2309.55C964.846,2308.68 966.783,2308.24 968.981,2308.24ZM952.493,2315.45C951.317,2313.99 949.784,2313.27 947.892,2313.27C946.409,2313.27 945.201,2313.77 944.268,2314.78C943.335,2315.79 942.869,2317.13 942.869,2318.79C942.869,2320.45 943.329,2321.8 944.249,2322.83C945.17,2323.87 946.345,2324.39 947.777,2324.39C949.924,2324.39 951.522,2323.58 952.57,2321.97L956.634,2324.73C955.765,2326.19 954.545,2327.31 952.972,2328.11C951.4,2328.9 949.566,2329.29 947.47,2329.29C945.4,2329.29 943.572,2328.86 941.987,2327.99C940.402,2327.12 939.169,2325.89 938.287,2324.31C937.405,2322.72 936.964,2320.9 936.964,2318.83C936.964,2316.73 937.405,2314.88 938.287,2313.28C939.169,2311.69 940.409,2310.45 942.006,2309.57C943.604,2308.68 945.451,2308.24 947.547,2308.24C949.515,2308.24 951.266,2308.62 952.8,2309.37C954.334,2310.13 955.561,2311.2 956.481,2312.58L952.493,2315.45ZM873.582,2329.06L867.716,2329.06L867.716,2325.42C866.31,2328 864.009,2329.29 860.814,2329.29C858.539,2329.29 856.73,2328.58 855.388,2327.17C854.046,2325.75 853.375,2323.82 853.375,2321.39L853.375,2308.43L859.28,2308.43L859.28,2319.71C859.28,2321.01 859.625,2322.03 860.315,2322.78C861.005,2323.52 861.951,2323.89 863.153,2323.89C864.559,2323.86 865.671,2323.36 866.489,2322.39C867.307,2321.42 867.716,2320.17 867.716,2318.63L867.716,2308.43L873.582,2308.43L873.582,2329.06ZM792.179,2329.06L786.12,2329.06L786.12,2302.22L797.508,2302.22C800.934,2302.22 803.58,2303.03 805.446,2304.66C807.312,2306.28 808.245,2308.58 808.245,2311.54C808.245,2314.66 807.305,2317.08 805.426,2318.81C803.548,2320.53 800.908,2321.39 797.508,2321.39L792.179,2321.39L792.179,2329.06ZM885.2,2329.06L879.295,2329.06L879.295,2308.43L885.2,2308.43L885.2,2312.04C886.632,2309.53 889.009,2308.26 892.332,2308.2C894.633,2308.2 896.467,2308.92 897.834,2310.35C899.202,2311.78 899.886,2313.7 899.886,2316.1L899.886,2329.06L893.981,2329.06L893.981,2317.83C893.981,2316.53 893.617,2315.5 892.888,2314.74C892.16,2313.99 891.169,2313.61 889.916,2313.61C888.459,2313.64 887.309,2314.14 886.466,2315.13C885.622,2316.11 885.2,2317.37 885.2,2318.9L885.2,2329.06ZM989.84,2329.06L983.935,2329.06L983.935,2308.43L989.84,2308.43L989.84,2312C991.271,2309.52 993.597,2308.26 996.818,2308.2C998.557,2308.2 1000.03,2308.62 1001.23,2309.45C1002.43,2310.28 1003.29,2311.45 1003.8,2312.96C1004.46,2311.4 1005.43,2310.22 1006.69,2309.43C1007.96,2308.64 1009.47,2308.23 1011.24,2308.2C1013.51,2308.2 1015.32,2308.91 1016.66,2310.33C1018,2311.75 1018.67,2313.68 1018.67,2316.1L1018.67,2329.06L1012.81,2329.06L1012.81,2317.83C1012.81,2316.5 1012.45,2315.46 1011.73,2314.72C1011.02,2313.98 1010.05,2313.61 1008.82,2313.61C1007.41,2313.64 1006.3,2314.14 1005.48,2315.11C1004.67,2316.08 1004.26,2317.33 1004.26,2318.86L1004.26,2329.06L998.39,2329.06L998.39,2317.83C998.39,2316.53 998.039,2315.5 997.336,2314.74C996.633,2313.99 995.668,2313.61 994.441,2313.61C993.035,2313.64 991.917,2314.14 991.086,2315.11C990.255,2316.08 989.84,2317.33 989.84,2318.86L989.84,2329.06ZM823.927,2320.17L819.288,2320.17C818.137,2320.17 817.287,2320.35 816.738,2320.72C816.188,2321.1 815.913,2321.69 815.913,2322.51C815.913,2323.3 816.201,2323.93 816.776,2324.41C817.351,2324.88 818.137,2325.11 819.134,2325.11C820.361,2325.11 821.422,2324.82 822.317,2324.23C823.211,2323.64 823.748,2322.9 823.927,2322.01L823.927,2320.17ZM744.824,2313.15C743.291,2313.15 742.045,2313.68 741.086,2314.72C740.127,2315.77 739.648,2317.14 739.648,2318.83C739.648,2320.51 740.127,2321.88 741.086,2322.93C742.045,2323.98 743.291,2324.5 744.824,2324.5C746.333,2324.5 747.566,2323.98 748.525,2322.93C749.483,2321.88 749.962,2320.51 749.962,2318.83C749.962,2317.14 749.483,2315.77 748.525,2314.72C747.566,2313.68 746.333,2313.15 744.824,2313.15ZM968.981,2313.15C967.447,2313.15 966.201,2313.68 965.242,2314.72C964.284,2315.77 963.804,2317.14 963.804,2318.83C963.804,2320.51 964.284,2321.88 965.242,2322.93C966.201,2323.98 967.447,2324.5 968.981,2324.5C970.489,2324.5 971.722,2323.98 972.681,2322.93C973.64,2321.88 974.119,2320.51 974.119,2318.83C974.119,2317.14 973.64,2315.77 972.681,2314.72C971.722,2313.68 970.489,2313.15 968.981,2313.15ZM771.013,2324.39C772.521,2324.39 773.748,2323.86 774.694,2322.79C775.64,2321.73 776.113,2320.36 776.113,2318.67C776.113,2317.01 775.64,2315.65 774.694,2314.59C773.748,2313.53 772.521,2313 771.013,2313C769.505,2313 768.272,2313.53 767.313,2314.59C766.354,2315.65 765.875,2317.01 765.875,2318.67C765.875,2320.39 766.354,2321.77 767.313,2322.81C768.272,2323.86 769.505,2324.39 771.013,2324.39ZM913.613,2323.5C915.044,2323.5 916.207,2323.01 917.102,2322.03C917.997,2321.04 918.444,2319.76 918.444,2318.17C918.444,2316.59 917.997,2315.3 917.102,2314.3C916.207,2313.3 915.044,2312.81 913.613,2312.81C912.181,2312.81 911.018,2313.3 910.124,2314.3C909.229,2315.3 908.769,2316.59 908.743,2318.17C908.769,2319.76 909.222,2321.04 910.104,2322.03C910.986,2323.01 912.156,2323.5 913.613,2323.5ZM797.202,2307.25L792.179,2307.25L792.179,2316.33L797.202,2316.33C798.914,2316.33 800.224,2315.94 801.132,2315.16C802.039,2314.38 802.493,2313.24 802.493,2311.73C802.493,2310.25 802.039,2309.13 801.132,2308.38C800.224,2307.62 798.914,2307.25 797.202,2307.25Z" style="fill:rgb(222,49,99);fill-rule:nonzero;"/>
        </g>
    </g>
</svg>
